…
### Exercise 6

``` r
us_winners_foreign_born <- nobel_living %>%
  filter(country_us == "USA" & born_country_us == "Other") %>%
  count(born_country) %>%
  arrange(desc(n))

print(us_winners_foreign_born)
```

    ## # A tibble: 21 × 2
    ##    born_country       n
    ##    <chr>          <int>
    ##  1 Germany            7
    ##  2 United Kingdom     7
    ##  3 China              5
    ##  4 Canada             4
    ##  5 Japan              3
    ##  6 Australia          2
    ##  7 Israel             2
    ##  8 Norway             2
    ##  9 Austria            1
    ## 10 Finland            1
    ## # ℹ 11 more rows
…
